First Name	Last Name	Birthdate	Email	Home City	Home Zip	Home Address	Phone	Company Name	Work City	Work Address	Position	CV
Corinne	Bolliger	26.07.1986	bblaser@gmx.ch	Zollikon	Neuenburgweg 4a	6353	086 769 55 40	Jenni	Prilly	Portmannallee 8c	vitae	Debitis expedita enim dolor inventore dolorem autem esse. Odio illum fuga laudantium corporis. At asperiores eum similique dolor.
Bernhard	Scheidegger	14.07.1991	ywirz@yahoo.com	Wettingen	Rollering 73	9568	018 259 83 65	Christen	Estavayer-le-Lac	Achermannstrasse 42	at	Vel est eos aut soluta. Illum consectetur explicabo consectetur error ipsam magnam adipisci. Illum tempore voluptatum libero quaerat. Sed voluptatem laudantium assumenda sit voluptatem non occaecati qui.
Elena	Zimmermann	21.06.1975	alois.graber@gmail.com	Basel	Christa-Senn-Allee 71	3927	+41 (0)59 150 89 91	Mathis Widmer AG	Baar	Luigi-Eberle-Gasse 6b	eos	Quod soluta aut et iure. Tempore non voluptas voluptatem sit omnis mollitia. Consequuntur consequatur voluptatum porro asperiores molestiae.
Philippe	Blum	22.08.1975	jenni.stephanie@gmx.ch	Möhlin	Christa-Kohler-Allee 9a	1464	055 023 73 23	Gasser Liechti GmbH	Zofingen	La Neuvevillegasse 3c	in	Dolor qui non ipsa quis voluptate voluptatem. Quo quos dolor dolor deserunt nulla id inventore repudiandae. Quod cumque tempore praesentium et in. Dolorem beatae rerum animi perspiciatis.
Konrad	Hofstetter	23.04.1974	knecht.erich@blum.com	Willisau	Arthur-Rohner-Allee 03	2242	110486092	Häfliger	Thônex	Alessandro-Blum-Gasse 2c	tenetur	Ab animi non et voluptas corrupti. Consequatur quibusdam quis nihil facere a consequatur non nulla. Et animi architecto aspernatur natus quis. Qui aut nobis voluptas error nostrum nostrum.
Angelo	Fischer	21.06.1987	beatrix.stalder@yahoo.com	Schaffhausen	Moudonplatz 9	65	057 061 38 62	Hänni GmbH	Adliswil	Imhofweg 6c	natus	Et eligendi explicabo consectetur ea. Nisi tenetur optio sunt libero soluta quisquam. Molestiae et aspernatur doloremque veritatis voluptatibus.
Ali	Müller	13.10.1981	willi.schumacher@fischer.net	Estavayer-le-Lac	Biascaallee 5b	9207	920858929	Achermann AG	Illnau-Effretikon	Horwallee 962	eos	Necessitatibus optio illo doloremque doloremque ut voluptatum inventore. Accusantium molestias eligendi molestias nobis dolores voluptatem sunt. Aperiam saepe ut velit earum cumque blanditiis.
Veronika	Lanz	17.07.1991	pius.rothlisberger@yahoo.com	Olten	Mike-Bischof-Weg 94	1060	+41 39 058 40 33	Schmidt	Martigny	Plan-les-Ouatesstrasse 1	temporibus	Voluptas autem libero sint odit. Eum voluptatem doloribus mollitia sed aut. Asperiores vero eum et. Exercitationem omnis et nihil odio officiis. Expedita iusto impedit consequatur voluptas et.
Daniel	Walser	27.02.1969	laura.schmid@yahoo.com	Sursee	Asconastrasse 1	3658	034 484 83 39	Mettler Seiler AG	Conthey	Nadja-Peter-Weg 907	sunt	Blanditiis suscipit sunt quaerat voluptatum corrupti sed commodi. Et et magni facere laboriosam laboriosam amet. Asperiores soluta vero voluptates et. Ipsam velit molestias dicta harum in fuga atque omnis. Et laborum rerum odio officiis.
Jürgen	Wehrli	22.04.1987	laura15@googlemail.com	Chêne-Bougeries	Aarburgallee 9c	6164	034 827 98 08	Schaub	Sursee	Lachenplatz 3b	sunt	Impedit eos placeat sequi quia aut enim sit. Veritatis occaecati tenetur ut sed laborum recusandae nam. Distinctio asperiores nobis nihil odio.
Damian	Tobler	28.10.1990	probst.nils@wicki.li	Stäfa	Contheystr. 6	3393	+41 18 210 38 54	Sieber Bühlmann AG	Estavayer-le-Lac	Bischofszellstrasse 9	aut	Itaque deserunt dolorum in qui et. Iure qui tenetur vero blanditiis. Occaecati earum ut laborum velit vitae error tempora.
Anita	Kaiser	04.01.1986	lena.scharer@graber.com	Basel	Hauserplatz 0b	529	086 240 98 36	Weber GmbH	Locarno	Fehrplatz 3c	consectetur	Cum deserunt quisquam sequi et eos. Saepe voluptas suscipit dolorum maxime optio sed. Distinctio veniam enim porro. Aliquid et libero sequi quod ratione.
Klaus	Krebs	09.12.1978	iris47@schwarz.ch	Delsberg	Stefanie-Meier-Weg 0c	4993	+41 70 398 25 98	Schuler	Prilly	Freienbachring 6a	velit	Voluptatem odit consequuntur cum itaque exercitationem inventore. Quia consectetur ipsum architecto ullam quod nemo. Neque quia sed tempore quasi voluptate in. Ut quos sed deleniti iste voluptatibus ea dolore.
Konrad	Meier	14.11.1995	frischknecht.adolf@bluewin.ch	Köniz	Aeschallee 497	8717	+41 (0)43 190 25 38	Bürki	Richterswil	Horwstr. 7	error	Cum voluptatem quisquam omnis omnis et. Quos modi adipisci excepturi. Non eos ut et fugit voluptatem et. Voluptate nam ducimus consequatur.
Johanna	Kohler	21.03.1982	zweber@swissonline.ch	Carouge	Gertrud-Achermann-Allee 7	1158	893837905	Wagner	Plan-les-Ouates	Erich-Schär-Weg 3	tenetur	Vel molestiae asperiores quam est voluptatem. Voluptatem commodi reiciendis qui qui. Nulla qui quasi ad fuga quo dolorum.
Antonia	Bürki	05.04.1972	leon61@scheidegger.org	Bischofszell	Friedlistrasse 349	4272	486054564	Bieri GmbH	Stäfa	Robert-Meyer-Weg 568	eum	Voluptas ad quam quod tempora facere ducimus. Ut ea id accusamus est aut dignissimos sed. Consequatur et quis qui qui dolorem nihil omnis. Ut praesentium laudantium eum praesentium veritatis.
Josef	Merz	10.01.1988	bartschi.isabella@yahoo.com	Münsingen	Pfäffikonstrasse 3c	336	+41 09 766 37 15	Lüscher	Fürstenau	Vernierplatz 1b	incidunt	Dolorem maiores ad tenetur. Harum dolorem nulla corporis pariatur hic et ut. Adipisci facere doloremque non voluptatem soluta dignissimos nam.
Susanne	Kohler	30.05.1987	egger.richard@stadelmann.ch	Baden	Kurt-Kuster-Ring 4	8947	854771899	Weber	Köniz	Hauserring 2a	earum	Eligendi odio reiciendis ipsum alias sed. Autem et ipsam incidunt nemo ipsa est explicabo quae. Aspernatur eos odio repudiandae dolore doloribus et.
Marianna	Frischknecht	15.05.1991	hauser.christoph@wirz.com	Amriswil	Corinne-Frei-Allee 2b	7485	+41 (0)89 507 30 75	Frischknecht	Renens	Schwyzstrasse 6a	architecto	Autem debitis saepe omnis eligendi voluptatibus architecto. Laborum magni aut vero dolorem provident quaerat praesentium nemo. Sit et culpa quis voluptas corporis voluptate quis.
Livia	Iten	12.11.1988	nelly.koch@sutter.ch	Riehen	Rohnerstrasse 2	8942	017 844 55 24	Müller GmbH	Romont	Nadja-Erni-Ring 1b	nihil	Id omnis facere sit omnis. Sunt labore rerum aut praesentium. Eaque voluptatibus quibusdam temporibus numquam est.
Silvan	Roth	13.12.1977	muller.carlo@gmx.ch	Neunkirch	Wettingenstrasse 3	2730	+41 (0)86 771 27 34	Blum Graber GmbH	Männedorf	Lyssring 365	qui	Provident nisi nihil incidunt unde autem delectus et. Et cumque veniam ut architecto cupiditate dolorem suscipit. Nostrum ut temporibus fugit unde magnam. Omnis nesciunt ab vero quas modi ipsam odio.
Samuel	Arnold	08.11.1990	gabriel.eberle@studer.ch	Ittigen	Ebikonallee 5b	4675	+41 (0)90 977 07 84	Meyer Fankhauser GmbH	Bourg-Saint-Pierre	Jörg-Bürgi-Platz 93	impedit	Aliquam nihil voluptatem quia. Aut aut nostrum maiores ut officia omnis quaerat. Impedit consequuntur id occaecati voluptate. Officia beatae quos veritatis quo eligendi reiciendis illum.
Rudolf	Koller	16.02.1986	elia.ammann@bluewin.ch	Cudrefin	Hermann-Schumacher-Platz 606	1303	+41 (0)05 880 55 99	Wittwer	Ostermundigen	Freienbachallee 778	quae	Vero ut voluptate numquam eum. Magni est quae non eaque. Quaerat ut sequi natus ea. Fugit et nemo veritatis temporibus modi.
Wolfgang	Fuchs	30.10.1971	renato41@wyss.com	Bülach	Hans-Sigrist-Gasse 8b	998	+41 53 867 15 00	Wittwer	Kaiserstuhl	Rütistr. 8	rerum	Aliquam voluptate vel laborum labore ex vel sit. Qui quis consequuntur et laborum excepturi ipsa. Eius facilis necessitatibus soluta totam. Ipsa eum eveniet qui. Facilis magni repellat molestias dolorum occaecati commodi non.
Silvan	Peter	28.10.1992	frank15@mader.li	Kriens	Friedliring 2	1484	135743311	Rohrer GmbH	Flawil	Markus-Stöckli-Strasse 7c	reiciendis	Accusantium libero maxime fugit similique in voluptatibus deleniti. Voluptatem voluptatem doloribus perspiciatis sed consequatur amet ut officia. Sed sapiente cum nemo minima perferendis et.
Rainer	Walser	18.11.1977	lisa.hofmann@yahoo.com	Splügen	Vanessa-Wicki-Gasse 182	3187	015 459 24 17	Bieri	Glarus	Esther-Bischof-Gasse 6a	sed	Enim dolores non quis. Velit eveniet aspernatur eos enim a. Nihil veniam dolores dolorum laboriosam.
Marianne	Müller	13.01.1970	hrohner@bartschi.com	Bad Zurzach	Lichtensteigstr. 6	8586	+41 96 603 05 67	Wolf GmbH	Bassersdorf	Heidi-Benz-Platz 4c	provident	Tempora rerum nostrum officiis dolor. Dolores omnis recusandae deserunt voluptatem tenetur repellat voluptatem magni. Ea possimus dolor laborum excepturi. Quidem natus velit doloribus harum vero qui.
Francesco	Hug	10.08.1996	locher.melanie@flury.li	Pruntrut	Affoltern am Albisgasse 4b	1437	086 686 90 11	Schmid	Estavayer-le-Lac	Walserplatz 9a	id	Officia quia praesentium aspernatur ut magni animi. Sunt enim omnis est aliquid maiores amet magni. Accusantium ipsum eius nemo iure.
Pius	Leuenberger	23.03.1993	carla.bolliger@hunziker.com	Beromünster	Meierring 2b	889	750526598	Lüscher GmbH	Aigle	Selina-Imhof-Ring 4b	quae	A cupiditate nemo neque consectetur autem. Sunt est aliquid fugit. Debitis corporis aut suscipit velit.
Janine	Schär	21.05.1967	klara25@bluewin.ch	Stäfa	Steinergasse 807	1545	092 048 65 56	Wehrli Walker AG	Einsiedeln	Biel/Biennegasse 4	reprehenderit	Nisi eos quo delectus cum sed autem reprehenderit. Alias maxime consectetur itaque et eligendi beatae eum facere. Voluptates cumque iure maiores.
Josef	Ackermann	03.09.1987	sarah35@yahoo.com	Pfäffikon	Yverdon-les-Bainsgasse 388	3477	+41(0)647372346	Meier GmbH	Aesch	Jeannette-Schaub-Strasse 2a	dolorum	Porro sit quam ea ea molestiae quaerat. Veniam eveniet commodi quaerat sit. Quo aspernatur rem aut reprehenderit vel. Et vel rerum hic ea maiores non eos occaecati.
Christine	Meier	06.02.1990	dominik44@stucki.net	Rheinfelden	Gutgasse 2	4613	+41(0)762214536	Blaser Hauser GmbH	Regensberg	Käserstr. 5b	quod	Voluptate et nesciunt impedit qui earum deleniti qui. Accusantium architecto quas aut totam eum porro in quas. Architecto assumenda sed consequatur. Eos natus placeat iste. Fugiat ipsam autem iure est repellat.
Stephanie	Studer	18.08.1992	uwuthrich@bluewin.ch	Cossonay	Rischweg 4a	6488	019 618 65 01	Küng	Grandson	Mike-Gerber-Weg 5a	voluptatum	Debitis voluptatem animi assumenda molestiae et. Consequatur porro occaecati dicta aperiam. Quibusdam adipisci excepturi eveniet asperiores fugit modi. Nesciunt aspernatur id nisi ea beatae.
Beat	Zaugg	23.02.1988	paeschlimann@gmx.ch	Saint-Ursanne	Nidaustrasse 598	2990	+41(0)868343560	Stutz AG	Neuhausen am Rheinfall	Zürichstrasse 1b	ut	Illo dicta pariatur est nobis. Consequuntur rerum deserunt omnis enim delectus qui numquam. Nihil tempora laborum dolores accusamus aut autem.
Robert	Wenger	02.05.1969	mprobst@meister.com	Sala	Bellinzonagasse 1c	1248	648973904	Zehnder Hauser AG	Erlach	Riehengasse 5c	est	Iste nesciunt aut earum commodi vero. Consequatur voluptas fugit consequuntur ratione rerum. Eveniet deserunt cumque nemo.
Mathias	Hartmann	18.07.1995	tamara.locher@arnold.org	Lichtensteig	Arthweg 3	9707	+41 (0)97 863 91 66	Lutz AG	Einsiedeln	Trachselgasse 310	unde	Molestias dolorem modi omnis voluptas consequuntur. Aspernatur facere molestiae libero. Beatae sit voluptatum est totam quis. Ut illum voluptas sed vero.
Carla	Zürcher	26.05.1989	patrizia40@hotmail.com	Weinfelden	Brigitte-Wehrli-Ring 796	448	664849003	Mäder	Cham	Simone-Frey-Platz 5c	delectus	Atque et placeat mollitia veniam at. In voluptate officiis consequatur fugiat. Cum qui nesciunt sunt alias voluptate. Ut accusamus voluptatem odit inventore eveniet.
Fabio	Heiniger	24.03.1986	portmann.marcel@hanni.li	Horgen	Wallisellenring 2b	3306	+41 (0)95 327 56 79	Frischknecht	Rheinfelden	Ackermannallee 10	pariatur	Animi nihil et omnis dolorem. Officiis tempora dolores dolores non nostrum quod dolorem ad. Voluptatum alias placeat qui cum sunt ut qui.
